Alpha_beta_diversity
…
##    CS1_EQ1   CS10_OV3 CS100_CN59 CS101_CN60  CS102_FL7 CS103_CN61 
##  12.210650  14.551801   5.807628   2.386502   5.091455  10.229674

##    CS1_EQ1   CS10_OV3 CS100_CN59 CS101_CN60  CS102_FL7 CS103_CN61 
##  78.728452  52.421395  17.591846   2.671035  12.818023  13.455389

## [1] TRUE

## [1] TRUE

For plotting, lets get a data frame with the sample metadata and the diversity measures gathered into tidy form,

## # A tibble: 579 x 5
##    Sample     Host_species Index   Rank   Diversity
##    <chr>      <chr>        <fct>   <fct>      <dbl>
##  1 CS1_EQ1    Equine       InvSimp Family     12.2 
##  2 CS10_OV3   Ovine        InvSimp Family      9.15
##  3 CS100_CN59 Canine       InvSimp Family      5.33
##  4 CS101_CN60 Canine       InvSimp Family      2.14
##  5 CS102_FL7  Feline       InvSimp Family      4.03
##  6 CS103_CN61 Canine       InvSimp Family      8.88
##  7 CS104_EQ28 Equine       InvSimp Family      9.48
##  8 CS105_EQ29 Equine       InvSimp Family      7.94
##  9 CS106_CN62 Canine       InvSimp Family      7.52
## 10 CS107_EQ30 Equine       InvSimp Family     12.1 
## #  with 569 more rows
…
